<?xml version="1.0" encoding="UTF-8" standalone="no"?>
<!-- Created with Inkscape (http://www.inkscape.org/) -->

<svg
   xmlns:dc="http://purl.org/dc/elements/1.1/"
   xmlns:cc="http://creativecommons.org/ns#"
   xmlns:rdf="http://www.w3.org/1999/02/22-rdf-syntax-ns#"
   xmlns:svg="http://www.w3.org/2000/svg"
   xmlns="http://www.w3.org/2000/svg"
   xmlns:sodipodi="http://sodipodi.sourceforge.net/DTD/sodipodi-0.dtd"
   xmlns:inkscape="http://www.inkscape.org/namespaces/inkscape"
   width="297mm"
   height="210mm"
   viewBox="0 0 297 210"
   version="1.1"
   id="svg8"
   inkscape:version="0.92pre2 r"
   sodipodi:docname="caa_logo.svg"
   inkscape:export-filename="/home/0_www/jekyll/caa/img/caa_logo.png"
   inkscape:export-xdpi="96"
   inkscape:export-ydpi="96">
  <defs
     id="defs2" />
  <sodipodi:namedview
     id="base"
     pagecolor="#ffffff"
     bordercolor="#666666"
     borderopacity="1.0"
     inkscape:pageopacity="0.0"
     inkscape:pageshadow="2"
     inkscape:zoom="1.4"
     inkscape:cx="594.72618"
     inkscape:cy="372.98523"
     inkscape:document-units="mm"
     inkscape:current-layer="layer1"
     showgrid="false"
     inkscape:window-width="1440"
     inkscape:window-height="853"
     inkscape:window-x="0"
     inkscape:window-y="25"
     inkscape:window-maximized="1" />
  <metadata
     id="metadata5">
    <rdf:RDF>
      <cc:Work
         rdf:about="">
        <dc:format>image/svg+xml</dc:format>
        <dc:type
           rdf:resource="http://purl.org/dc/dcmitype/StillImage" />
        <dc:title></dc:title>
      </cc:Work>
    </rdf:RDF>
  </metadata>
  <g
     inkscape:label="Layer 1"
     inkscape:groupmode="layer"
     id="layer1"
     transform="translate(0,-87)">
    <circle
       style="fill:#ffffff;fill-opacity:0.99193552;stroke:#000000;stroke-width:0.17382967;stroke-miterlimit:4;stroke-dasharray:none;stroke-opacity:1"
       id="path10"
       cx="103.12885"
       cy="188.22131"
       r="7.8051758" />
    <text
       xml:space="preserve"
       style="font-style:normal;font-weight:normal;font-size:6.66750002px;line-height:4.16718721px;font-family:sans-serif;letter-spacing:0px;word-spacing:0px;fill:#000000;fill-opacity:1;stroke:none;stroke-width:0.16668749px;stroke-linecap:butt;stroke-linejoin:miter;stroke-opacity:1"
       x="114.74704"
       y="187.10144"
       id="text14"><tspan
         sodipodi:role="line"
         id="tspan12"
         x="114.74704"
         y="187.10144"
         style="font-weight:bold;stroke-width:0.16668749px">Cryonics Association</tspan><tspan
         sodipodi:role="line"
         x="114.74704"
         y="191.26863"
         style="font-weight:bold;stroke-width:0.16668749px"
         id="tspan20" /><tspan
         sodipodi:role="line"
         x="114.74704"
         y="195.43582"
         style="font-weight:bold;stroke-width:0.16668749px"
         id="tspan16">of Australasia</tspan><tspan
         sodipodi:role="line"
         x="114.74704"
         y="199.603"
         style="stroke-width:0.16668749px"
         id="tspan18" /></text>
  </g>
</svg>
